…
#> # ℹ 6 more variables: acc_dt_s <dttm>, bat_type <chr>, bat_dt_s <dttm>,
#> #   mrn_h <chr>, dob_s <date>, sex <chr>
#> 
#> $path_lc_sens
#> # A tibble: 2 × 19
#>   entry_grp org_ind mtyp_ind org      mtyp  Value val     val_num val_extr sens 
#>       <dbl>   <dbl>    <dbl> <chr>    <chr> <chr> <chr>     <dbl> <chr>    <chr>
#> 1         4       1        1 MOD PSAR MIC03 AMIK  "<=16 "      16 <=       SS   
#> 2         4       1        1 MOD PSAR MIC03 AZTR  "<=4 "        4 <=       SS   
#> # ℹ 9 more variables: acc_id_h <chr>, acc_num_h <chr>, bat_id_h <chr>,
#> #   acc_dt_s <dttm>, bat_type <chr>, bat_dt_s <dttm>, mrn_h <chr>,
#> #   dob_s <date>, sex <chr>
#> 
#> $path_lb
#> # A tibble: 30 × 10
#>    entry_grp Value  val   val_num unit    range     acc_dt_s            mrn_h 
#>        <dbl> <chr>  <chr>   <dbl> <chr>   <chr>     <dttm>              <chr> 
#>  1         2 PHVP   7.24     7.24 ""      7.32-7.43 2002-08-23 01:29:00 c58017
#>  2         2 PHVP   7.24     7.24 ""      7.32-7.43 2002-08-23 01:29:00 c58017
#>  3         3 GLU14  122    122    "mg/dL" 70-99     2018-01-15 04:37:00 bbae37
#>  4         2 PCO2VP 71      71    "mm Hg" 41-51     2002-08-23 01:29:00 c58017
#>  5         2 PCO2VP 71      71    "mm Hg" 41-51     2002-08-23 01:29:00 c58017
#>  6         3 BUN14  60      60    "mg/dL" 8-26      2018-01-15 04:37:00 bbae37
#>  7         2 PO2VP  46      46    "mm Hg" 30-50     2002-08-23 01:29:00 c58017
#>  8         2 PO2VP  46      46    "mm Hg" 30-50     2002-08-23 01:29:00 c58017
#>  9         3 CREA14 0.9      0.9  "mg/dL" 0.5-1.4   2018-01-15 04:37:00 bbae37
#> 10         2 HCO3VP 30      30    "mEq/L" 19-25     2002-08-23 01:29:00 c58017
#> # ℹ 20 more rows
#> # ℹ 2 more variables: dob_s <date>, sex <chr>
```
